"{\"pagination\":{\"total\":119049,\"limit\":5,\"offset\":0,\"total_pages\":23810,\"current_page\":1,\"next_url\":\"https:\\/\\/api.artic.edu\\/api\\/v1\\/artworks?page=2&limit=5&fields=id%2Ctitle%2Cartist_title%2Cthumbnail\"},\"data\":[{\"id\":11434,\"title\":\"SalomewiththeHeadofSaintJohntheBaptist\",\"thumbnail\":{\"lqip\":\"data:image\\/gif;base64,R0lGODlhBAAFAPQAABwXDCsjEiwjFyslFy4nGy0mHSspGS8pHDMjFDIoFzQsGkM5J006I0c1LEc5K1ZHL0xDMGBOMWdIOHpcQQAAAAAAAAAAAAAAAAAAAAAAAAAAAAAAAAAAAAAAAAAAAAAAACH5BAAAAAAALAAAAAAEAAUAAAURYDAcBRNBQjM9CiI5BpAsRAgAOw==\",\"width\":1581,\"height\":2250,\"alt_text\":\"Largepaintingofwoman,ingoldandpinkdress,placingseveredheadonplatter.\"},\"artist_title\":\"GuidoReni\"},{\"id\":8961,\"title\":\"HeadofArthurJeromeEddy\",\"thumbnail\":{\"lqip\":\"data:image\\/gif;base64,R0lGODlhBQAFAPQAAD8\\/O0REQUpKR1FRT35+fZmZl5uamZubmZ+fn6Kioqampaenp6ioqLW1tLW1tri4uLq6ur6+vr+\\/v9LS0tPT0wAAAAAAAAAAAAAAAAAAAAAAAAAAAAAAAAAAAAAAAAAAACH5BAAAAAAALAAAAAAFAAUAAAUVIIMQyQIhgfJMjtBM0gAMEWUUxxQCADs=\",\"width\":2304,\"height\":2250,\"alt_text\":\"Aworkmadeofbronze.\"},\"artist_title\":\"AugusteRodin\"},{\"id\":14556,\"title\":\"Auvers,PanoramicView\",\"thumbnail\":{\"lqip\":\"data:image\\/gif;base64,R0lGODlhBgAFAPQAAGNpVmpvWGhsW2pyW2h2WW97XnBzWWtyYGt0Ym92Y255ZXR2YHV1Y3Z2Y3RyZnF5YHV4YXR5ZnV7Z3d9Z3V5cH2AZoWNX4eNX4mRi4qSjIyTjomWkZCWkpGXkgAAAAAAACH5BAAAAAAALAAAAAAGAAUAAAUYINdpWLZNipQciOEwQQMMCxRRwkMU1lWFADs=\",\"width\":12293,\"height\":9759,\"alt_text\":\"Viewofavillagesurroundedbyhills,fields,andtrees,shownfromavantagepointabovethescene.Subtlyrollinghillsrecedeintoabluishgray-ishskypunctuatedbywhiteclouds.Thickbrushstrokesbuiltupatopeachotherarevisiblethroughout.\"},\"artist_title\":\"PaulCezanne\"},{\"id\":16564,\"title\":\"BranchoftheSeinenearGiverny(Mist)\",\"thumbnail\":{\"lqip\":\"data:image\\/gif;base64,R0lGODlhBQAFAPQAAG5xiHJ2iXJ2jXl6k4CCmYWImZCSqpSWr5ubr46OsZuds5qata6nrqamt6ymsaimt6emubausbOstbuzuLiyvKutxK+wxbGww6+00AAAAAAAAAAAAAAAAAAAAAAAAAAAACH5BAAAAAAALAAAAAAFAAUAAAUVICAUERMQiPQMB2ZVyXJRkKE0kxMCADs=\",\"width\":5253,\"height\":5097,\"alt_text\":\"Paintingofsoftlyrenderedshapesinpaleblue,green,andwhite.Atexturedgreenmassatleftresemblesfoliage.Blueandwhitecloud-likeformsfilltherestoftheframe.\"},\"artist_title\":\"ClaudeMonet\"},{\"id\":16487,\"title\":\"TheBayofMarseille,SeenfromL'Estaque\",\"thumbnail\":{\"lqip\":\"data:image\\/gif;base64,R0lGODlhBgAFAPQAAHx2X15rbk1le1dsfV1wdm9xaWpybnd1YX58ZmRscWJwdIJ1XoJ5Yox\\/ZZSJb5mIa1NqgVpxiXWDiXeDiHqGjX+Mk4OSmoWTmIqeoo2fpIyeppekoJSlqJmnqAAAAAAAACH5BAAAAAAALAAAAAAGAAUAAAUYINdlGrZdVkVJk6EMAhQ1QJEEhPMcC4OEADs=\",\"width\":12821,\"height\":10275,\"alt_text\":\"Impressionistsealandscape,tanhouses,blueocean,distantmountains.\"},\"artist_title\":\"PaulCezanne\"}],\"info\":{\"license_text\":\"ThedatainthisresponseislicensedunderaCreativeCommonsZero(CC0)1.0designationandtheTermsandConditionsofartic.edu.\",\"license_links\":[\"https:\\/\\/creativecommons.org\\/publicdomain\\/zero\\/1.0\\/\",\"https:\\/\\/www.artic.edu\\/terms\"],\"version\":\"1.6\"},\"config\":{\"iiif_url\":\"https:\\/\\/www.artic.edu\\/iiif\\/2\",\"website_url\":\"http:\\/\\/www.artic.edu\"}}"